{"count":15,"next":"https://black-goat.herokuapp.com/concept/?format=json&page=2&search=8b67ba94-a191-4b7c-a2f4-6dd9b84a69a6","previous":null,"results":[{"id":8,"added_by":{"username":"erickpeirson","email":"erick.peirson@asu.edu"},"authority":{"id":1,"name":"Conceptpower"},"added":"2016-11-15T21:42:17.302056Z","updated":"2016-11-15T21:42:17.302105Z","name":"Margaret Elizabeth Bradshaw","identifier":"http://www.digitalhps.org/concepts/CONe5b55803-1ef6-4abe-b81c-1493e97421df","local_identifier":"http://www.digitalhps.org/concepts/CONe5b55803-1ef6-4abe-b81c-1493e97421df","description":"Botanist at the University of Exeter","concept_type":7},{"id":10,"added_by":{"username":"erickpeirson","email":"erick.peirson@asu.edu"},"authority":{"id":1,"name":"Conceptpower"},"added":"2016-11-15T21:42:17.365540Z","updated":"2016-11-15T21:42:17.365589Z","name":"christopher william bradshaw isherwood","identifier":"http://www.digitalhps.org/concepts/WID-11074284-N-03-Christopher_William_Bradshaw_Isherwood","local_identifier":"http://www.digitalhps.org/concepts/WID-11074284-N-03-Christopher_William_Bradshaw_Isherwood","description":"United States writer (born in England) whose best known novels portray Berlin in the 1930's and who collaborated with W. H. Auden in writing plays in verse (1904-1986)","concept_type":null},{"id":19,"added_by":{"username":"erickpeirson","email":"erick.peirson@asu.edu"},"authority":{"id":1,"name":"Conceptpower"},"added":"2016-11-15T21:42:17.730568Z","updated":"2016-11-15T21:42:17.730620Z","name":"Bradshaw 1965","identifier":"http://www.digitalhps.org/concepts/CON76832db2-7abb-4c77-b08e-239017b6a585","local_identifier":"http://www.digitalhps.org/concepts/CON76832db2-7abb-4c77-b08e-239017b6a585","description":"Bradshaw, Anthony David. 1965. \"The evolutionary significance of phenotypic plasticity in plants.\" Advances in Genetics 13: 115-155.","concept_type":18},{"id":12,"added_by":{"username":"erickpeirson","email":"erick.peirson@asu.edu"},"authority":{"id":1,"name":"Conceptpower"},"added":"2016-11-15T21:42:17.424278Z","updated":"2016-11-15T21:42:17.424331Z","name":"Anthony D. Bradshaw","identifier":"http://www.digitalhps.org/concepts/72ec32b4-2a20-4d26-ab8f-a173f067542d","local_identifier":"http://www.digitalhps.org/concepts/72ec32b4-2a20-4d26-ab8f-a173f067542d","description":null,"concept_type":null},{"id":14,"added_by":{"username":"erickpeirson","email":"erick.peirson@asu.edu"},"authority":{"id":1,"name":"Conceptpower"},"added":"2016-11-15T21:42:17.474679Z","updated":"2016-11-15T21:42:17.474737Z","name":"Anthony David Bradshaw (1926-2008)","identifier":"http://www.digitalhps.org/concepts/066efc74-8710-4a1f-9111-3a27d880438e","local_identifier":"http://www.digitalhps.org/concepts/066efc74-8710-4a1f-9111-3a27d880438e","description":"Plant ecologist","concept_type":7},{"id":2,"added_by":{"username":"erickpeirson","email":"erick.peirson@asu.edu"},"authority":{"id":2,"name":"VIAF"},"added":"2016-11-15T21:42:16.997247Z","updated":"2016-11-15T21:42:16.997299Z","name":"Bradshaw Isherwood, Christopher William, 1904-1986","identifier":"http://viaf.org/viaf/76317308","local_identifier":"76317308","description":"Bradshaw Isherwood, Christopher William, 1904-1986","concept_type":1},{"id":3,"added_by":{"username":"erickpeirson","email":"erick.peirson@asu.edu"},"authority":{"id":2,"name":"VIAF"},"added":"2016-11-15T21:42:17.041007Z","updated":"2016-11-15T21:42:17.041039Z","name":"Bradshaw, John, 1933-","identifier":"http://viaf.org/viaf/86595748","local_identifier":"86595748","description":"Bradshaw, John, 1933-","concept_type":1},{"id":4,"added_by":{"username":"erickpeirson","email":"erick.peirson@asu.edu"},"authority":{"id":2,"name":"VIAF"},"added":"2016-11-15T21:42:17.122885Z","updated":"2016-11-15T21:42:17.122937Z","name":"Bradshaw, Paul F","identifier":"http://viaf.org/viaf/45436680","local_identifier":"45436680","description":"Bradshaw, Paul F","concept_type":1},{"id":5,"added_by":{"username":"erickpeirson","email":"erick.peirson@asu.edu"},"authority":{"id":2,"name":"VIAF"},"added":"2016-11-15T21:42:17.173174Z","updated":"2016-11-15T21:42:17.173221Z","name":"Bradshaw, Henry, 1831-1886","identifier":"http://viaf.org/viaf/37074791","local_identifier":"37074791","description":"Bradshaw, Henry, 1831-1886","concept_type":1},{"id":6,"added_by":{"username":"erickpeirson","email":"erick.peirson@asu.edu"},"authority":{"id":2,"name":"VIAF"},"added":"2016-11-15T21:42:17.246300Z","updated":"2016-11-15T21:42:17.246348Z","name":"Bradshaw, David, 1955-","identifier":"http://viaf.org/viaf/71482503","local_identifier":"71482503","description":"Bradshaw, David, 1955-","concept_type":1}]}
